edu/rit/cs/test.class
edu/rit/cs/PubSubAgent$pubOptions.class
edu/rit/cs/pseudoManager.class
edu/rit/cs/Publisher.class
edu/rit/cs/Subscriber.class
edu/rit/cs/publisherAttributes.class
edu/rit/cs/EventManager.class
edu/rit/cs/Event.class
edu/rit/cs/PubSubAgent.class
edu/rit/cs/PubSubAgent$subOptions.class
edu/rit/cs/Main.class
edu/rit/cs/synchronizeData.class
edu/rit/cs/subscribeAttributes.class
edu/rit/cs/PubSubAgent$1.class
edu/rit/cs/Topic.class
